[gd_resource type="Resource" script_class="ItemData" load_steps=3 format=3 uid="uid://dq3x5160i2pjq"]

[ext_resource type="Script" path="res://item/item_data.gd" id="1_b2uwq"]
[ext_resource type="Texture2D" uid="uid://caerw78qxth04" path="res://item/item_atlas.tres" id="2_i3c0t"]

[resource]
script = ExtResource("1_b2uwq")
name = "Blue Book"
description = "Good reading!"
stackable = false
texture = ExtResource("2_i3c0t")
