[gd_resource type="AtlasTexture" load_steps=2 format=3 uid="uid://caerw78qxth04"]

[ext_resource type="Texture2D" uid="uid://duuegdulyjxqg" path="res://item/#1 - Transparent Icons.png" id="1_htcpq"]

[resource]
atlas = ExtResource("1_htcpq")
region = Rect2(0, 416, 32, 32)
